{
  "backgroundColor": "#f7f7f7",
  "navigationBarTitleText": "家畅智慧酒店置换平台",
  "enablePullDownRefresh": false,
  "navigationStyle": "custom",
  "navigationBarTextStyle": "white",
  "usingComponents": {
    "navBar": "../../component/navBar/navBar",
    "tabbar":"/component/custom-tab-bar/index",
    "com-movable": "../../com/movable/movable"
  }
}